AAI1001 Team Project Proposal
…
Historical Comparison: Users can compare happiness scores across 2021-2023 by a plotted line graph. This feature will enable users to track changes in happiness levels over time, identify trends, and gain insights into the factors driving these changes.

Data sources

For our project, we will be using the World Happiness Report (WHR) dataset, which is available on the World Happiness Report website. We will be doing the latest 3 years from 2021 - 2023. The dataset contains information on the happiness scores of countries worldwide, along with key variables such as GDP per capita, social support, healthy life expectancy, personal freedom, generosity, and perceptions of corruption. The data will be used to create visualizations that highlight the happiness levels across different countries and regions, as well as the factors influencing these levels.

Importing dataset

We will be importing the dataset using the readxl package. The dataset will be stored in a data frame for further analysis and visualization.

data <- read_excel("DataForTable2.1.xls")
data

# A tibble: 2,363 × 11
   `Country name`  year `Life Ladder` `Log GDP per capita` `Social support`
   <chr>          <dbl>         <dbl>                <dbl>            <dbl>
 1 Afghanistan     2008          3.72                 7.35            0.451
 2 Afghanistan     2009          4.40                 7.51            0.552
 3 Afghanistan     2010          4.76                 7.61            0.539
 4 Afghanistan     2011          3.83                 7.58            0.521
 5 Afghanistan     2012          3.78                 7.66            0.521
 6 Afghanistan     2013          3.57                 7.68            0.484
 7 Afghanistan     2014          3.13                 7.67            0.526
 8 Afghanistan     2015          3.98                 7.65            0.529
 9 Afghanistan     2016          4.22                 7.65            0.559
10 Afghanistan     2017          2.66                 7.65            0.491
# ℹ 2,353 more rows
# ℹ 6 more variables: `Healthy life expectancy at birth` <dbl>,
#   `Freedom to make life choices` <dbl>, Generosity <dbl>,
#   `Perceptions of corruption` <dbl>, `Positive affect` <dbl>,
#   `Negative affect` <dbl>
…
